{
  "values": [
    "cobblemon:small_budding_tumblestone",
    "cobblemon:medium_budding_tumblestone",
    "cobblemon:large_budding_tumblestone",
    "cobblemon:tumblestone_cluster",
    "cobblemon:tumblestone_block",
	"cobblemon:polished_tumblestone",
	"cobblemon:polished_tumblestone_stairs",
	"cobblemon:polished_tumblestone_slab",
	"cobblemon:polished_tumblestone_wall",
	"cobblemon:chiseled_polished_tumblestone",
	"cobblemon:tumblestone_bricks",
	"cobblemon:tumblestone_brick_stairs",
	"cobblemon:tumblestone_brick_slab",
	"cobblemon:tumblestone_brick_wall",
	"cobblemon:chiseled_tumblestone_bricks"
  ]
}