{
  "type": "minecraft:crafting_shaped",
  "category": "building",
  "key": {
    "#": {
      "item": "cobblemon:polished_tumblestone"
    }
  },
  "pattern": [
    "###"
  ],
  "result": {
    "count": 6,
    "item": "cobblemon:polished_tumblestone_slab"
  }
}